<svg width="9" height="10" viewBox="0 0 9 10" fill="none" xmlns="http://www.w3.org/2000/svg">
<path d="M8.48529 2.17154L7.07108 0.757324L4.30423 3.52417L1.53738 0.757324L0.123169 2.17154L2.89001 4.93839L0 7.8284L1.41422 9.24261L4.30423 6.3526L7.19424 9.24261L8.60846 7.8284L5.71844 4.93839L8.48529 2.17154Z" fill="#E35555"/>
</svg>
