<?xml version="1.0" standalone="no"?> 
<!DOCTYPE svg PUBLIC "-//W3C//DTD SVG 1.1//EN" "http://www.w3.org/Graphics/SVG/1.1/DTD/svg11.dtd" >
<svg xmlns="http://www.w3.org/2000/svg">
<defs>
  <font id="custom-icons" horiz-adv-x="284.93">
    <font-face font-family="custom-icons"
      units-per-em="1000" ascent="1000"
      descent="0" />
    <missing-glyph horiz-adv-x="0" />
    <glyph glyph-name="bottom"
      unicode="&#xEA01;"
      horiz-adv-x="1714.7929706307173" d="M1706.1868078960038 857.4265767934521A54.16466056812711 54.16466056812711 0 0 1 1689.0346653827635 896.9065960519981L1603.1535869041886 982.8478574867598A54.16466056812711 54.16466056812711 0 0 1 1524.0731824747231 982.8478574867598L848.8204140587385 307.5349061145884L173.5074626865671 982.787674530573A54.16466056812711 54.16466056812711 0 0 1 94.4872412132883 982.787674530573L8.6061627347135 896.9065960519981A54.16466056812711 54.16466056812711 0 0 1 8.6061627347135 817.8863745787194L809.0394800192585 17.4530572941744A54.16466056812711 54.16466056812711 0 0 1 888.0597014925372 17.4530572941744L1688.4930187770824 817.8863745787194A54.16466056812711 54.16466056812711 0 0 1 1706.1868078960038 857.4265767934521z" />
    <glyph glyph-name="checked"
      unicode="&#xEA02;"
      horiz-adv-x="1250" d="M1215.656125 823.2275L1038.8798749999999 1000L442.9661249999999 404.08375L211.1211249999999 635.9325L34.3438749999999 459.16L418.834875 74.6687499999999L419.7623749999999 75.6L443.8973749999999 51.4599999999999L1215.656125 823.2275z" />
    <glyph glyph-name="download"
      unicode="&#xEA03;"
      horiz-adv-x="1000" d="M499.997607142857 319.0421428571429C485.0147499999999 319.0421428571429 472.8547499999999 331.2021428571428 472.8547499999999 346.1850000000001V907.14C472.8547499999999 922.1228571428572 485.0147499999999 934.2825714285714 499.997607142857 934.2825714285714C514.9804642857142 934.2825714285714 527.1404642857142 922.1228571428572 527.1404642857142 907.14V346.1850000000001C527.1404642857142 331.2021428571428 514.9804642857142 319.0421428571429 499.997607142857 319.0421428571429zM499.992607142857 319.04C493.0411785714285 319.04 486.0961785714285 321.6842857142857 480.8083214285714 327.0057142857143L336.0483214285714 471.765C325.4461785714285 482.3678571428571 325.4461785714285 499.5571428571429 336.0483214285714 510.1664285714286C346.6511785714285 520.7692857142857 363.8411785714285 520.7692857142857 374.4504642857142 510.1664285714286L500.0254642857142 384.5842857142858L625.607607142857 510.1664285714286C636.2104642857142 520.7692857142857 653.4068928571428 520.7692857142857 664.0097499999999 510.1664285714286C674.6118928571428 499.5571428571429 674.6118928571428 482.3678571428571 664.0097499999999 471.765L519.2433214285713 327.0057142857143C513.8890357142857 321.6842857142857 506.9440357142856 319.04 499.992607142857 319.04zM834.7633214285714 65.7071428571428H165.2411785714285C110.3390357142856 65.7071428571428 65.7152499999999 110.3285714285714 65.7152499999999 165.2357142857143V328.0907142857143C65.7152499999999 343.0735714285715 77.8754642857142 355.2335714285714 92.8583214285713 355.2335714285714C107.8411785714285 355.2335714285714 120.0011785714285 343.0735714285715 120.0011785714285 328.0907142857143V165.2357142857143C120.0011785714285 140.3 140.3047499999999 119.9928571428571 165.2411785714285 119.9928571428571H834.7633214285714C859.6990357142856 119.9928571428571 879.9990357142856 140.3 879.9990357142856 165.2357142857143V328.0907142857143C879.9990357142856 343.0735714285715 892.1633214285714 355.2335714285714 907.1418928571428 355.2335714285714C922.127607142857 355.2335714285714 934.28475 343.0735714285715 934.28475 328.0907142857143V165.2357142857143C934.28475 110.3285714285714 889.6633214285713 65.7071428571428 834.7633214285714 65.7071428571428z" />
    <glyph glyph-name="facebook"
      unicode="&#xEA04;"
      horiz-adv-x="500" d="M408.7295454545455 833.9581818181819H500.0204545454545V992.9583181818182C484.2704545454545 995.125 430.1045454545455 1000 367.0213636363636 1000C235.3963636363637 1000 145.2295454545455 917.2081818181819 145.2295454545455 765.0418181818181V625H-0.0204545454546V447.25H145.2295454545455V0H323.3127272727272V447.209090909091H462.6886363636363L484.8113636363637 624.9586363636364H323.2713636363636V747.4168181818181C323.3127272727272 798.7918181818181 337.1463636363636 833.9581818181819 408.7295454545455 833.9581818181819z" />
    <glyph glyph-name="google"
      unicode="&#xEA05;"
      horiz-adv-x="1000" d="M500 600V400H782.9C741.6 283.6 630.4 200 500 200C334.6 200 200 334.6 200 500C200 665.4 334.6 800 500 800C571.6999999999999 800 640.7 774.3 694.3 727.5999999999999L825.6999999999999 878.4C735.7 956.8 620.0999999999999 1000 500 1000C224.3 1000 0 775.7 0 500C0 224.3000000000001 224.3 0 500 0C775.6999999999999 0 1000 224.3000000000001 1000 500V600H500z" />
    <glyph glyph-name="top"
      unicode="&#xEA06;"
      horiz-adv-x="1714.7929706307173" d="M8.6061627347135 142.5734232065479A54.16466056812711 54.16466056812711 0 0 1 25.7583052479538 103.2739528165624L111.6393837265286 17.3928743379875A54.16466056812711 54.16466056812711 0 0 1 190.6596051998074 17.3928743379875L865.9725565719788 692.4650938854116L1541.2855079441501 17.1521425132403A54.16466056812711 54.16466056812711 0 0 1 1620.305729417429 17.1521425132403L1706.1868078960038 103.2739528165624A54.16466056812711 54.16466056812711 0 0 1 1706.1868078960038 182.2941742898411L905.332209918151 982.787674530573A54.16466056812711 54.16466056812711 0 0 1 826.3119884448724 982.787674530573L25.8786711603274 182.3543572460279A54.16466056812711 54.16466056812711 0 0 1 8.6061627347135 142.5734232065479z" />
    <glyph glyph-name="unchecked"
      unicode="&#xEA07;"
      horiz-adv-x="900" d="M868.1060000000002 782.846L726.6850000000002 924.2676L450.0000000000001 647.5830000000001L173.3150000000001 924.2676L31.8939000000001 782.846L308.5780000000002 506.161L19.5770000000001 217.16L160.9990000000001 75.7389999999999L450.0000000000001 364.74L739.001 75.7389999999999L880.423 217.16L591.421 506.161L868.1060000000002 782.846z" />
  </font>
</defs>
</svg>
